3. Finches dataset
…
## -- Conflicts --------------------------------------------- tidyverse_conflicts() --
## x dplyr::filter() masks stats::filter()
## x dplyr::lag()    masks stats::lag()

You will see a warning and some messages when you run this code, but those can be safely ignored for now.

Read the data.

finches <- read_excel("finches_data.xlsx")
finches

## # A tibble: 100 x 12
##     band species     sex   first_adult_year last_year outcome weight  wing
##    <dbl> <chr>       <chr>            <dbl>     <dbl> <chr>    <dbl> <dbl>
##  1     9 Geospiza f~ unkn~             1975      1977 died      14.5  67  
##  2    12 Geospiza f~ fema~             1975      1977 died      13.5  66  
##  3   276 Geospiza f~ unkn~             1976      1977 died      16.4  64.2
##  4   278 Geospiza f~ unkn~             1976      1977 died      18.5  67.2
##  5   283 Geospiza f~ male              1976      1977 died      17.4  70.2
##  6   288 Geospiza f~ unkn~             1976      1977 died      16.3  71.2
##  7   293 Geospiza f~ unkn~             1976      1977 died      15.7  67.2
##  8   294 Geospiza f~ unkn~             1976      1977 died      16.8  68.2
##  9   298 Geospiza f~ male              1976      1977 died      15.5  68.2
## 10   307 Geospiza f~ male              1975      1977 died      17.5  70  
## # ... with 90 more rows, and 4 more variables: tarsus <dbl>,
## #   beak_length <dbl>, beak_depth <dbl>, beak_width <dbl>
…
