3. Finch Data Example
…
Put your cursor on the first line and type Cmd+Enter to run it. The cursor automatically moves to the next line, so you can type Cmd+Enter again to run the next line.

You will see a warning and some messages in the Console tab, but those can be safely ignored.

To read the data, you will use a function named read_excel(). Here we run that function and assign the results to an object names finches.

finches <- read_excel("finches_data.xlsx")

Warning If you haven’t saved your data file in the right place, or if you are not working with your RStudio project open, you may get an error message in the console. If you can’t figure out how to solve the problem yourself, ask your instructor for help.

To get a quick look at the data, print the finches object to the console:

finches

## # A tibble: 100 x 12
##     band species     sex   first_adult_year last_year outcome weight  wing
##    <dbl> <chr>       <chr>            <dbl>     <dbl> <chr>    <dbl> <dbl>
##  1     9 Geospiza f~ unkn~             1975      1977 died      14.5  67  
##  2    12 Geospiza f~ fema~             1975      1977 died      13.5  66  
##  3   276 Geospiza f~ unkn~             1976      1977 died      16.4  64.2
##  4   278 Geospiza f~ unkn~             1976      1977 died      18.5  67.2
##  5   283 Geospiza f~ male              1976      1977 died      17.4  70.2
##  6   288 Geospiza f~ unkn~             1976      1977 died      16.3  71.2
##  7   293 Geospiza f~ unkn~             1976      1977 died      15.7  67.2
##  8   294 Geospiza f~ unkn~             1976      1977 died      16.8  68.2
##  9   298 Geospiza f~ male              1976      1977 died      15.5  68.2
## 10   307 Geospiza f~ male              1975      1977 died      17.5  70  
## # ... with 90 more rows, and 4 more variables: tarsus <dbl>,
## #   beak_length <dbl>, beak_depth <dbl>, beak_width <dbl>
…
